-7.978672008987703,4.5568461717842865,-0.8235388565843609
-7.974927376623007,4.256248399764356,-2.2734014084296965
-9.234115455565783,3.4519985989573487,-1.3729522841063224
-7.194950290457476,3.1062620526771108,-1.77242486510719
-6.043548854131196,3.7885098277117857,-0.29259295908397476
-8.933945809266207,3.469903403673139,-0.24919857406203255
-8.660191200475053,4.389984146543993,-0.9607598536907036
-7.800891372846027,3.4125795159689245,1.4921570207370392
-7.522694847790684,2.956575199242421,0.4624237483312904
-8.730041273023772,4.223149723203077,-2.3197912876516744
-8.83738367195118,4.211147364067445,0.3783454162235118
-7.33782934186278,3.898637845810081,-0.6612248593611874
-8.987719613420177,3.294441919803613,-0.8207599347316861
-6.452075396833834,4.3579044177667825,-2.1231613191346326
-7.185113653657956,3.629203847782005,-1.0370431640778572
-6.897521334211882,5.0452856506942725,0.5711589553443
-8.34841514627539,3.705073752347107,-0.028857732368334665
-6.533652495930391,3.5351118903530314,-0.5457801404357158
-8.615532597058777,2.8180795041176507,0.4524046586222994
-6.1529575944819275,3.9422760066179876,0.6434117341201255
-7.147561598005116,3.369166373593197,0.0012744417365153082
-5.971161056586781,3.97846008908837,1.2045224920421076
-10.128942727142494,4.8361886325735455,-0.2730740955337274
-7.808204973518618,4.106046904733824,-2.3476900783727914
-7.728869510890262,4.371398699710068,1.1177728809696175
0.4683146236967186,-4.248307198468822,-3.9418118402225097
1.9019869596724401,-3.1110624859159506,-3.969815000405012
1.4998522750837222,-3.3427360462275946,-2.471409806105084
0.2845317480930136,-3.7674757421734033,-3.832162949770131
-0.4769301061617526,-3.143693318511059,-3.178999524458084
0.9916982986128269,-3.674400728950782,-4.8554255386883876
0.565939519205007,-3.7825281121024044,-4.242332065859593
0.8252991303043569,-3.035762738761097,-1.553868895427443
1.161162654802205,-3.1822632048528705,-3.5145007124041405
-0.9321863733286755,-3.4663274710248517,-3.3798245866969467
3.449826954455652,-3.6321745603567575,-3.138507454304361
0.9518730722651227,-4.608491633195167,-2.2972319821229528
1.7385178746571401,-2.648781648532588,-4.349442251432713
2.389379152906465,-4.841664658367916,-2.853197702837703
3.1770404677803445,-4.430349920706323,-4.006352526240745
1.0862362070580072,-3.9432892496918344,-4.990718227704106
1.0551478167763932,-4.50211730930174,-2.9664623660027916
0.06716060773656285,-1.8898791905580956,-4.2233080889742105
0.6645233257646904,-2.626296378205965,-4.670919113071928
1.2140447765744955,-2.1326708412932067,-5.047538031199201
1.1712187005026702,-3.1799308013272114,-2.658231924860663
-0.25036586890771595,-4.760270208659911,-2.9181132310210756
1.283569515203552,-3.1893207452297583,-3.0936065871409975
0.3065601203918752,-3.2075598984146314,-3.146982323339292
0.2722334239439982,-1.5740390844308785,-2.966221875726186
3.1982291272766976,14.97486867501701,9.061786776977446
7.155005329166899,15.97895261576416,9.369785480728666
7.507588380170638,14.487323311622347,12.655270437421068
9.37442208698989,13.17098522574361,9.503677788717109
3.8018072624309482,12.030140887818476,10.85694669860388
6.2631400713152825,14.21514305640939,12.665516615504135
5.606839905437809,16.568829612063986,10.481836450956175
11.021174454861232,14.913096153279364,9.296835004599522
3.43905112555977,14.626706288235722,10.564224546780386
7.008837109866179,14.608236706896442,10.865492292118342
3.8872486855451847,10.632067008377621,10.118120213298045
7.2936337103289395,14.08994894600976,8.519672560008111
5.9271979733843585,14.432396217207025,9.243435245029822
5.888286333573051,13.778178894641352,8.725209521770841
6.296410842378561,14.78333051048582,13.177252603782641
7.688440225751801,10.90642272183517,9.135500037601842
6.610906656099314,14.68933335957377,12.041245490044183
13.286299102991437,14.803542479135686,13.282281397793286
7.4888396486683995,14.964543960360947,10.380611628151396
7.098774562668529,12.116111028674208,10.53751290395207
4.610109026023788,13.825509736521997,15.640467250779105
1.8463057364984987,15.034281838498378,7.7857183750527845
4.636972390103128,15.839662651684083,11.139710155623014
3.4253465658233826,12.231154039229414,12.370345615301439
4.120102858247721,14.0946786369133,11.102293797239716
2.562962367571502,3.318838605467001,5.800427794286988
0.5026490089938163,0.3826039436331537,3.8568695636573898
4.819012891174563,-1.0858586361700389,4.677444598609623
4.297843807450913,1.4015552627341945,3.0491046502263073
3.0386110352188047,-0.6094954952624221,3.8695554119494036
6.188544249401873,0.7103950379204456,2.958223329307404
4.9171558095623915,3.286156766997962,6.398247151636692
1.2613079400492069,-0.6234286378203648,6.749915984589906
2.478858690552056,0.7686516136983549,6.011500340953977
2.1499671816131025,0.01363443738631212,-0.012351749293637582
2.0037814269787924,-0.2759297556107282,2.9778744878626973
5.98897984487768,-2.042289595461937,4.189482530764495
3.736473754909364,2.2648324050781854,2.695756034040812
5.285108517212667,0.11827206300839281,3.3772862842380453
4.233518100375133,0.4015120148392173,3.9492239450717794
3.6450660164652557,-0.47504792381362804,5.019825278686843
4.533558900761797,2.4819476956970403,2.992826012569698
6.739912950964627,-2.8252092278047405,4.621871618256597
4.422838698707092,0.5244102730815612,3.9154999810790807
3.2281795134443145,-0.636578930509237,3.9655021253936544
4.814766034511765,0.6384457004265832,3.8101848679189905
4.8897627021301036,0.5638717527939262,6.068842439068412
4.484806151865645,-1.1405700449040963,4.0092777005145175
4.66130329666512,1.0184778696292094,4.818196869863749
3.7163539639434,2.0194198151616494,3.9621921775562265
