3000,9234.93,1348.63,6.84761
3000,9561.94,1557.86,6.13787
3000,9824.84,1498.8,6.55514
3000,9802.6,1514.1,6.47422
3000,9791.23,1515.98,6.45867
3000,9770.89,1483.52,6.5863
3000,9955.33,1541.89,6.45657
3000,9819.99,1554.16,6.31853
3000,10073.5,1585.18,6.35478
3000,9597.92,1555.24,6.17135
